Conference,City,Country,Continent,lat,lon
"<a href = ""https://user2021.r-project.org/"">useR! 2021</a>",Zurich,Switzerland,Europe,47.3769,8.5417
"<a href = ""https://user2020.r-project.org/"">useR! 2020</a>","St.Louis, MO",USA,North America,38.627,-90.1994
"<a href = ""https://user2019.r-project.org/"">useR! 2019</a>",Toulouse,France,Europe,43.6047,1.4442
"<a href = ""https://user2018.r-project.org/"">useR! 2018</a>",Brisbane,Australia,Australia,27.4705,153.026
"<a href = ""https://www.r-project.org/conferences/useR-2017/"">useR! 2017</a>",Brussels,Belgium,Europe,50.8503,4.3517
"<a href = ""https://user2016.r-project.org/"">useR! 2016</a>","Stanford, CA",USA,North America,37.4275,-122.1697
"<a href = ""https://user2015.math.aau.dk/"">useR! 2015</a>",Aalborg,Denmark,Europe,57.046707,9.935932
"<a href = ""https://user2014.r-project.org/"">useR! 2014</a>","Los Angeles, CA",USA,North America,34.052235,-118.243683
"<a href = ""http://www.edii.uclm.es/~useR-2013/"">useR! 2013</a>",Albacete,Spain,Europe,38.988266,-1.861976
"<a href = ""https://biostat.app.vumc.org/wiki/Main/UseR-2012"">useR! 2012</a>","Nashville, TN",USA,North America,36.1627,-86.7816
"<a href = ""https://user2011.r-project.org/"">useR! 2011</a>",Coventry,UK,Europe,52.4068,-1.5197
"<a href = ""https://user2010.org/"">useR! 2010</a>","Gaithersburg, MD",USA,North America,39.144,-77.2016
"<a href = ""http://math.agrocampus-ouest.fr/infoglueDeliverLive/evenements/useR2009/"">useR! 2009</a>",Rennes,France,Europe,48.1173,-1.6778
"<a href = ""https://www.statistik.uni-dortmund.de/useR-2008/"">useR! 2008</a>",Dortmund,Germany,Europe,51.5136,7.4653
"<a href = ""https://www.r-project.org/conferences/useR-2007/"">useR! 2007</a>","Ames, IA",USA,North America,42.0308,-93.6319
"<a href = ""https://www.r-project.org/conferences/useR-2006/"">useR! 2006</a>",Vienna,Austria,Europe,48.2082,16.3738
"<a href = ""http://www.ci.tuwien.ac.at/Conferences/useR-2004/"">useR! 2004</a>",Vienna,Austria,Europe,48.2082,16.3738
